PROYECTO ASCENSOR/ascensor/simulation/qsim/ascensor.msim.vcd
$comment
	File created using the following command:
		vcd file ascensor.msim.vcd -direction
$end
$date
	Thu Mar 27 22:56:41 2025
$end
$version
	ModelSim Version 10.1d
$end
$timescale
	1ps
$end
$scope module ascensor_vlg_vec_tst $end
$var reg 1 ! clk $end
$var reg 1 " falla_energia $end
$var reg 5 # llamada_piso [4:0] $end
$var reg 4 $ personas [3:0] $end
$var reg 1 % reset $end
$var reg 5 & seleccion_piso [4:0] $end
$var wire 1 ' alarma_sonora $end
$var wire 1 ( destino_piso [2] $end
$var wire 1 ) destino_piso [1] $end
$var wire 1 * destino_piso [0] $end
$var wire 1 + luz_puerta $end
$var wire 1 , piso_actual [2] $end
$var wire 1 - piso_actual [1] $end
$var wire 1 . piso_actual [0] $end
$var wire 1 / sampler $end
$scope module i1 $end
$var wire 1 0 gnd $end
$var wire 1 1 vcc $end
$var wire 1 2 unknown $end
$var tri1 1 3 devclrn $end
$var tri1 1 4 devpor $end
$var tri1 1 5 devoe $end
$var wire 1 6 falla_energia~input_o $end
$var wire 1 7 piso_actual[0]~output_o $end
$var wire 1 8 piso_actual[1]~output_o $end
$var wire 1 9 piso_actual[2]~output_o $end
$var wire 1 : luz_puerta~output_o $end
$var wire 1 ; alarma_sonora~output_o $end
$var wire 1 < destino_piso[0]~output_o $end
$var wire 1 = destino_piso[1]~output_o $end
$var wire 1 > destino_piso[2]~output_o $end
$var wire 1 ? clk~input_o $end
$var wire 1 @ clk~inputclkctrl_outclk $end
$var wire 1 A reset~input_o $end
$var wire 1 B reset~inputclkctrl_outclk $end
$var wire 1 C control_movimiento_inst|piso_actual[2]~reg0_q $end
$var wire 1 D control_movimiento_inst|piso_actual[0]~reg0_q $end
$var wire 1 E control_movimiento_inst|Add0~0_combout $end
$var wire 1 F control_movimiento_inst|Add1~0_combout $end
$var wire 1 G control_movimiento_inst|piso_int~35_combout $end
$var wire 1 H control_movimiento_inst|piso_int~36_combout $end
$var wire 1 I control_movimiento_inst|Add0~1 $end
$var wire 1 J control_movimiento_inst|Add0~2_combout $end
$var wire 1 K control_movimiento_inst|Add1~1 $end
$var wire 1 L control_movimiento_inst|Add1~2_combout $end
$var wire 1 M control_movimiento_inst|piso_int~33_combout $end
$var wire 1 N control_movimiento_inst|piso_actual[1]~reg0_q $end
$var wire 1 O control_movimiento_inst|piso_int~34_combout $end
$var wire 1 P control_movimiento_inst|Add1~3 $end
$var wire 1 Q control_movimiento_inst|Add1~4_combout $end
$var wire 1 R control_movimiento_inst|Add0~3 $end
$var wire 1 S control_movimiento_inst|Add0~4_combout $end
$var wire 1 T control_movimiento_inst|piso_int~31_combout $end
$var wire 1 U control_movimiento_inst|piso_int~32_combout $end
$var wire 1 V control_movimiento_inst|Add1~5 $end
$var wire 1 W control_movimiento_inst|Add1~6_combout $end
$var wire 1 X control_movimiento_inst|Add0~5 $end
$var wire 1 Y control_movimiento_inst|Add0~6_combout $end
$var wire 1 Z control_movimiento_inst|piso_int~30_combout $end
$var wire 1 [ control_movimiento_inst|Add0~7 $end
$var wire 1 \ control_movimiento_inst|Add0~8_combout $end
$var wire 1 ] control_movimiento_inst|Add1~7 $end
$var wire 1 ^ control_movimiento_inst|Add1~8_combout $end
$var wire 1 _ control_movimiento_inst|piso_int~29_combout $end
$var wire 1 ` control_movimiento_inst|Add0~9 $end
$var wire 1 a control_movimiento_inst|Add0~10_combout $end
$var wire 1 b control_movimiento_inst|Add1~9 $end
$var wire 1 c control_movimiento_inst|Add1~10_combout $end
$var wire 1 d control_movimiento_inst|piso_int~28_combout $end
$var wire 1 e control_movimiento_inst|Add0~11 $end
$var wire 1 f control_movimiento_inst|Add0~12_combout $end
$var wire 1 g control_movimiento_inst|Add1~11 $end
$var wire 1 h control_movimiento_inst|Add1~12_combout $end
$var wire 1 i control_movimiento_inst|piso_int~27_combout $end
$var wire 1 j control_movimiento_inst|Add0~13 $end
$var wire 1 k control_movimiento_inst|Add0~14_combout $end
$var wire 1 l control_movimiento_inst|Add1~13 $end
$var wire 1 m control_movimiento_inst|Add1~14_combout $end
$var wire 1 n control_movimiento_inst|piso_int~26_combout $end
$var wire 1 o control_movimiento_inst|Add1~15 $end
$var wire 1 p control_movimiento_inst|Add1~16_combout $end
$var wire 1 q control_movimiento_inst|Add0~15 $end
$var wire 1 r control_movimiento_inst|Add0~16_combout $end
$var wire 1 s control_movimiento_inst|piso_int~25_combout $end
$var wire 1 t control_movimiento_inst|Add0~17 $end
$var wire 1 u control_movimiento_inst|Add0~18_combout $end
$var wire 1 v control_movimiento_inst|Add1~17 $end
$var wire 1 w control_movimiento_inst|Add1~18_combout $end
$var wire 1 x control_movimiento_inst|piso_int~24_combout $end
$var wire 1 y control_movimiento_inst|Add0~19 $end
$var wire 1 z control_movimiento_inst|Add0~20_combout $end
$var wire 1 { control_movimiento_inst|Add1~19 $end
$var wire 1 | control_movimiento_inst|Add1~20_combout $end
$var wire 1 } control_movimiento_inst|piso_int~23_combout $end
$var wire 1 ~ control_movimiento_inst|Add0~21 $end
$var wire 1 !! control_movimiento_inst|Add0~22_combout $end
$var wire 1 "! control_movimiento_inst|Add1~21 $end
$var wire 1 #! control_movimiento_inst|Add1~22_combout $end
$var wire 1 $! control_movimiento_inst|piso_int~22_combout $end
$var wire 1 %! control_movimiento_inst|Add1~23 $end
$var wire 1 &! control_movimiento_inst|Add1~24_combout $end
$var wire 1 '! control_movimiento_inst|Add0~23 $end
$var wire 1 (! control_movimiento_inst|Add0~24_combout $end
$var wire 1 )! control_movimiento_inst|piso_int~21_combout $end
$var wire 1 *! control_movimiento_inst|Add0~25 $end
$var wire 1 +! control_movimiento_inst|Add0~26_combout $end
$var wire 1 ,! control_movimiento_inst|Add1~25 $end
$var wire 1 -! control_movimiento_inst|Add1~26_combout $end
$var wire 1 .! control_movimiento_inst|piso_int~20_combout $end
$var wire 1 /! control_movimiento_inst|Add0~27 $end
$var wire 1 0! control_movimiento_inst|Add0~28_combout $end
$var wire 1 1! control_movimiento_inst|Add1~27 $end
$var wire 1 2! control_movimiento_inst|Add1~28_combout $end
$var wire 1 3! control_movimiento_inst|piso_int~19_combout $end
$var wire 1 4! control_movimiento_inst|Equal0~5_combout $end
$var wire 1 5! control_movimiento_inst|Equal0~7_combout $end
$var wire 1 6! control_movimiento_inst|Equal0~8_combout $end
$var wire 1 7! control_movimiento_inst|Equal0~6_combout $end
$var wire 1 8! control_movimiento_inst|Add1~29 $end
$var wire 1 9! control_movimiento_inst|Add1~30_combout $end
$var wire 1 :! control_movimiento_inst|Add0~29 $end
$var wire 1 ;! control_movimiento_inst|Add0~30_combout $end
$var wire 1 <! control_movimiento_inst|piso_int~18_combout $end
$var wire 1 =! control_movimiento_inst|Add1~31 $end
$var wire 1 >! control_movimiento_inst|Add1~32_combout $end
$var wire 1 ?! control_movimiento_inst|Add0~31 $end
$var wire 1 @! control_movimiento_inst|Add0~32_combout $end
$var wire 1 A! control_movimiento_inst|piso_int~17_combout $end
$var wire 1 B! control_movimiento_inst|Add0~33 $end
$var wire 1 C! control_movimiento_inst|Add0~34_combout $end
$var wire 1 D! control_movimiento_inst|Add1~33 $end
$var wire 1 E! control_movimiento_inst|Add1~34_combout $end
$var wire 1 F! control_movimiento_inst|piso_int~16_combout $end
$var wire 1 G! control_movimiento_inst|Add0~35 $end
$var wire 1 H! control_movimiento_inst|Add0~36_combout $end
$var wire 1 I! control_movimiento_inst|Add1~35 $end
$var wire 1 J! control_movimiento_inst|Add1~36_combout $end
$var wire 1 K! control_movimiento_inst|piso_int~15_combout $end
$var wire 1 L! control_movimiento_inst|Add0~37 $end
$var wire 1 M! control_movimiento_inst|Add0~38_combout $end
$var wire 1 N! control_movimiento_inst|Add1~37 $end
$var wire 1 O! control_movimiento_inst|Add1~38_combout $end
$var wire 1 P! control_movimiento_inst|piso_int~14_combout $end
$var wire 1 Q! control_movimiento_inst|Add1~39 $end
$var wire 1 R! control_movimiento_inst|Add1~40_combout $end
$var wire 1 S! control_movimiento_inst|Add0~39 $end
$var wire 1 T! control_movimiento_inst|Add0~40_combout $end
$var wire 1 U! control_movimiento_inst|piso_int~13_combout $end
$var wire 1 V! control_movimiento_inst|Add1~41 $end
$var wire 1 W! control_movimiento_inst|Add1~42_combout $end
$var wire 1 X! control_movimiento_inst|Add0~41 $end
$var wire 1 Y! control_movimiento_inst|Add0~42_combout $end
$var wire 1 Z! control_movimiento_inst|piso_int~12_combout $end
$var wire 1 [! control_movimiento_inst|Add1~43 $end
$var wire 1 \! control_movimiento_inst|Add1~44_combout $end
$var wire 1 ]! control_movimiento_inst|Add0~43 $end
$var wire 1 ^! control_movimiento_inst|Add0~44_combout $end
$var wire 1 _! control_movimiento_inst|piso_int~11_combout $end
$var wire 1 `! control_movimiento_inst|Equal0~2_combout $end
$var wire 1 a! control_movimiento_inst|Add1~45 $end
$var wire 1 b! control_movimiento_inst|Add1~46_combout $end
$var wire 1 c! control_movimiento_inst|Add0~45 $end
$var wire 1 d! control_movimiento_inst|Add0~46_combout $end
$var wire 1 e! control_movimiento_inst|piso_int~10_combout $end
$var wire 1 f! control_movimiento_inst|Add0~47 $end
$var wire 1 g! control_movimiento_inst|Add0~48_combout $end
$var wire 1 h! control_movimiento_inst|Add1~47 $end
$var wire 1 i! control_movimiento_inst|Add1~48_combout $end
$var wire 1 j! control_movimiento_inst|piso_int~9_combout $end
$var wire 1 k! control_movimiento_inst|Add0~49 $end
$var wire 1 l! control_movimiento_inst|Add0~50_combout $end
$var wire 1 m! control_movimiento_inst|Add1~49 $end
$var wire 1 n! control_movimiento_inst|Add1~50_combout $end
$var wire 1 o! control_movimiento_inst|piso_int~8_combout $end
$var wire 1 p! control_movimiento_inst|Add1~51 $end
$var wire 1 q! control_movimiento_inst|Add1~52_combout $end
$var wire 1 r! control_movimiento_inst|Add0~51 $end
$var wire 1 s! control_movimiento_inst|Add0~52_combout $end
$var wire 1 t! control_movimiento_inst|piso_int~7_combout $end
$var wire 1 u! control_movimiento_inst|Equal0~1_combout $end
$var wire 1 v! control_movimiento_inst|Equal0~3_combout $end
$var wire 1 w! control_movimiento_inst|Add0~53 $end
$var wire 1 x! control_movimiento_inst|Add0~54_combout $end
$var wire 1 y! control_movimiento_inst|Add1~53 $end
$var wire 1 z! control_movimiento_inst|Add1~54_combout $end
$var wire 1 {! control_movimiento_inst|piso_int~6_combout $end
$var wire 1 |! control_movimiento_inst|Add1~55 $end
$var wire 1 }! control_movimiento_inst|Add1~56_combout $end
$var wire 1 ~! control_movimiento_inst|Add0~55 $end
$var wire 1 !" control_movimiento_inst|Add0~56_combout $end
$var wire 1 "" control_movimiento_inst|piso_int~5_combout $end
$var wire 1 #" control_movimiento_inst|Add0~57 $end
$var wire 1 $" control_movimiento_inst|Add0~58_combout $end
$var wire 1 %" control_movimiento_inst|Add1~57 $end
$var wire 1 &" control_movimiento_inst|Add1~58_combout $end
$var wire 1 '" control_movimiento_inst|piso_int~4_combout $end
$var wire 1 (" control_movimiento_inst|Add1~59 $end
$var wire 1 )" control_movimiento_inst|Add1~60_combout $end
$var wire 1 *" control_movimiento_inst|Add0~59 $end
$var wire 1 +" control_movimiento_inst|Add0~60_combout $end
$var wire 1 ," control_movimiento_inst|piso_int~37_combout $end
$var wire 1 -" control_movimiento_inst|Equal0~0_combout $end
$var wire 1 ." control_movimiento_inst|Equal0~4_combout $end
$var wire 1 /" control_movimiento_inst|Equal0~9_combout $end
$var wire 1 0" control_movimiento_inst|Add0~61 $end
$var wire 1 1" control_movimiento_inst|Add0~62_combout $end
$var wire 1 2" control_movimiento_inst|Add1~61 $end
$var wire 1 3" control_movimiento_inst|Add1~62_combout $end
$var wire 1 4" control_movimiento_inst|piso_int~38_combout $end
$var wire 1 5" control_movimiento_inst|Equal0~10_combout $end
$var wire 1 6" control_movimiento_inst|en_movimiento~q $end
$var wire 1 7" control_puertas_inst|contador[0]~32_combout $end
$var wire 1 8" seleccion_piso[4]~input_o $end
$var wire 1 9" llamada_piso[4]~input_o $end
$var wire 1 :" gestion_llamadas_inst|solicitudes~4_combout $end
$var wire 1 ;" seleccion_piso[2]~input_o $end
$var wire 1 <" llamada_piso[2]~input_o $end
$var wire 1 =" gestion_llamadas_inst|solicitudes~2_combout $end
$var wire 1 >" llamada_piso[0]~input_o $end
$var wire 1 ?" seleccion_piso[0]~input_o $end
$var wire 1 @" gestion_llamadas_inst|process_0~3_combout $end
$var wire 1 A" llamada_piso[3]~input_o $end
$var wire 1 B" seleccion_piso[3]~input_o $end
$var wire 1 C" gestion_llamadas_inst|solicitudes~1_combout $end
$var wire 1 D" seleccion_piso[1]~input_o $end
$var wire 1 E" llamada_piso[1]~input_o $end
$var wire 1 F" gestion_llamadas_inst|solicitudes~0_combout $end
$var wire 1 G" gestion_llamadas_inst|process_0~0_combout $end
$var wire 1 H" gestion_llamadas_inst|process_0~1_combout $end
$var wire 1 I" gestion_llamadas_inst|Equal0~0_combout $end
$var wire 1 J" gestion_llamadas_inst|solicitudes~3_combout $end
$var wire 1 K" gestion_llamadas_inst|process_0~2_combout $end
$var wire 1 L" gestion_llamadas_inst|process_0~4_combout $end
$var wire 1 M" gestion_llamadas_inst|llamada_activada~q $end
$var wire 1 N" control_puertas_inst|contador[1]~35 $end
$var wire 1 O" control_puertas_inst|contador[2]~36_combout $end
$var wire 1 P" control_puertas_inst|contador[28]~42_combout $end
$var wire 1 Q" control_puertas_inst|contador[2]~37 $end
$var wire 1 R" control_puertas_inst|contador[3]~38_combout $end
$var wire 1 S" control_puertas_inst|contador[3]~39 $end
$var wire 1 T" control_puertas_inst|contador[4]~43_combout $end
$var wire 1 U" control_puertas_inst|contador[4]~44 $end
$var wire 1 V" control_puertas_inst|contador[5]~45_combout $end
$var wire 1 W" control_puertas_inst|Equal0~9_combout $end
$var wire 1 X" control_puertas_inst|contador[5]~46 $end
$var wire 1 Y" control_puertas_inst|contador[6]~47_combout $end
$var wire 1 Z" control_puertas_inst|contador[6]~48 $end
$var wire 1 [" control_puertas_inst|contador[7]~49_combout $end
$var wire 1 \" control_puertas_inst|contador[7]~50 $end
$var wire 1 ]" control_puertas_inst|contador[8]~51_combout $end
$var wire 1 ^" control_puertas_inst|contador[8]~52 $end
$var wire 1 _" control_puertas_inst|contador[9]~53_combout $end
$var wire 1 `" control_puertas_inst|contador[9]~54 $end
$var wire 1 a" control_puertas_inst|contador[10]~55_combout $end
$var wire 1 b" control_puertas_inst|contador[10]~56 $end
$var wire 1 c" control_puertas_inst|contador[11]~57_combout $end
$var wire 1 d" control_puertas_inst|contador[11]~58 $end
$var wire 1 e" control_puertas_inst|contador[12]~59_combout $end
$var wire 1 f" control_puertas_inst|contador[12]~60 $end
$var wire 1 g" control_puertas_inst|contador[13]~61_combout $end
$var wire 1 h" control_puertas_inst|contador[13]~62 $end
$var wire 1 i" control_puertas_inst|contador[14]~63_combout $end
$var wire 1 j" control_puertas_inst|contador[14]~64 $end
$var wire 1 k" control_puertas_inst|contador[15]~65_combout $end
$var wire 1 l" control_puertas_inst|contador[15]~66 $end
$var wire 1 m" control_puertas_inst|contador[16]~67_combout $end
$var wire 1 n" control_puertas_inst|contador[16]~68 $end
$var wire 1 o" control_puertas_inst|contador[17]~69_combout $end
$var wire 1 p" control_puertas_inst|contador[17]~70 $end
$var wire 1 q" control_puertas_inst|contador[18]~71_combout $end
$var wire 1 r" control_puertas_inst|contador[18]~72 $end
$var wire 1 s" control_puertas_inst|contador[19]~73_combout $end
$var wire 1 t" control_puertas_inst|contador[19]~74 $end
$var wire 1 u" control_puertas_inst|contador[20]~75_combout $end
$var wire 1 v" control_puertas_inst|contador[20]~76 $end
$var wire 1 w" control_puertas_inst|contador[21]~77_combout $end
$var wire 1 x" control_puertas_inst|contador[21]~78 $end
$var wire 1 y" control_puertas_inst|contador[22]~79_combout $end
$var wire 1 z" control_puertas_inst|contador[22]~80 $end
$var wire 1 {" control_puertas_inst|contador[23]~81_combout $end
$var wire 1 |" control_puertas_inst|Equal0~5_combout $end
$var wire 1 }" control_puertas_inst|contador[23]~82 $end
$var wire 1 ~" control_puertas_inst|contador[24]~83_combout $end
$var wire 1 !# control_puertas_inst|contador[24]~84 $end
$var wire 1 "# control_puertas_inst|contador[25]~85_combout $end
$var wire 1 ## control_puertas_inst|contador[25]~86 $end
$var wire 1 $# control_puertas_inst|contador[26]~87_combout $end
$var wire 1 %# control_puertas_inst|contador[26]~88 $end
$var wire 1 &# control_puertas_inst|contador[27]~89_combout $end
$var wire 1 '# control_puertas_inst|contador[27]~90 $end
$var wire 1 (# control_puertas_inst|contador[28]~91_combout $end
$var wire 1 )# control_puertas_inst|contador[28]~92 $end
$var wire 1 *# control_puertas_inst|contador[29]~93_combout $end
$var wire 1 +# control_puertas_inst|contador[29]~94 $end
$var wire 1 ,# control_puertas_inst|contador[30]~95_combout $end
$var wire 1 -# control_puertas_inst|contador[30]~96 $end
$var wire 1 .# control_puertas_inst|contador[31]~97_combout $end
$var wire 1 /# control_puertas_inst|Equal0~7_combout $end
$var wire 1 0# control_puertas_inst|Equal0~6_combout $end
$var wire 1 1# control_puertas_inst|Equal0~0_combout $end
$var wire 1 2# control_puertas_inst|Equal0~2_combout $end
$var wire 1 3# control_puertas_inst|Equal0~1_combout $end
$var wire 1 4# control_puertas_inst|Equal0~3_combout $end
$var wire 1 5# control_puertas_inst|Equal0~4_combout $end
$var wire 1 6# control_puertas_inst|Equal0~8_combout $end
$var wire 1 7# control_puertas_inst|estado_puerta~0_combout $end
$var wire 1 8# control_puertas_inst|estado_puerta~1_combout $end
$var wire 1 9# control_puertas_inst|contador[28]~40_combout $end
$var wire 1 :# control_puertas_inst|contador[28]~41_combout $end
$var wire 1 ;# control_puertas_inst|contador[0]~33 $end
$var wire 1 <# control_puertas_inst|contador[1]~34_combout $end
$var wire 1 =# control_puertas_inst|Equal1~0_combout $end
$var wire 1 ># control_puertas_inst|Equal1~1_combout $end
$var wire 1 ?# control_puertas_inst|estado_puerta~2_combout $end
$var wire 1 @# control_puertas_inst|luz_puerta~0_combout $end
$var wire 1 A# control_puertas_inst|luz_puerta~q $end
$var wire 1 B# control_puertas_inst|alarma_sonora~0_combout $end
$var wire 1 C# control_puertas_inst|alarma_sonora~q $end
$var wire 1 D# personas[2]~input_o $end
$var wire 1 E# personas[1]~input_o $end
$var wire 1 F# personas[0]~input_o $end
$var wire 1 G# personas[3]~input_o $end
$var wire 1 H# seguridad_inst|LessThan0~0_combout $end
$var wire 1 I# seguridad_inst|alarma_personas~q $end
$var wire 1 J# alarma_sonora~0_combout $end
$var wire 1 K# gestion_llamadas_inst|piso_destino[1]~feeder_combout $end
$var wire 1 L# gestion_llamadas_inst|piso_destino[2]~feeder_combout $end
$var wire 1 M# control_puertas_inst|contador [31] $end
$var wire 1 N# control_puertas_inst|contador [30] $end
$var wire 1 O# control_puertas_inst|contador [29] $end
$var wire 1 P# control_puertas_inst|contador [28] $end
$var wire 1 Q# control_puertas_inst|contador [27] $end
$var wire 1 R# control_puertas_inst|contador [26] $end
$var wire 1 S# control_puertas_inst|contador [25] $end
$var wire 1 T# control_puertas_inst|contador [24] $end
$var wire 1 U# control_puertas_inst|contador [23] $end
$var wire 1 V# control_puertas_inst|contador [22] $end
$var wire 1 W# control_puertas_inst|contador [21] $end
$var wire 1 X# control_puertas_inst|contador [20] $end
$var wire 1 Y# control_puertas_inst|contador [19] $end
$var wire 1 Z# control_puertas_inst|contador [18] $end
$var wire 1 [# control_puertas_inst|contador [17] $end
$var wire 1 \# control_puertas_inst|contador [16] $end
$var wire 1 ]# control_puertas_inst|contador [15] $end
$var wire 1 ^# control_puertas_inst|contador [14] $end
$var wire 1 _# control_puertas_inst|contador [13] $end
$var wire 1 `# control_puertas_inst|contador [12] $end
$var wire 1 a# control_puertas_inst|contador [11] $end
$var wire 1 b# control_puertas_inst|contador [10] $end
$var wire 1 c# control_puertas_inst|contador [9] $end
$var wire 1 d# control_puertas_inst|contador [8] $end
$var wire 1 e# control_puertas_inst|contador [7] $end
$var wire 1 f# control_puertas_inst|contador [6] $end
$var wire 1 g# control_puertas_inst|contador [5] $end
$var wire 1 h# control_puertas_inst|contador [4] $end
$var wire 1 i# control_puertas_inst|contador [3] $end
$var wire 1 j# control_puertas_inst|contador [2] $end
$var wire 1 k# control_puertas_inst|contador [1] $end
$var wire 1 l# control_puertas_inst|contador [0] $end
$var wire 1 m# gestion_llamadas_inst|solicitudes [4] $end
$var wire 1 n# gestion_llamadas_inst|solicitudes [3] $end
$var wire 1 o# gestion_llamadas_inst|solicitudes [2] $end
$var wire 1 p# gestion_llamadas_inst|solicitudes [1] $end
$var wire 1 q# gestion_llamadas_inst|solicitudes [0] $end
$var wire 1 r# gestion_llamadas_inst|piso_destino [2] $end
$var wire 1 s# gestion_llamadas_inst|piso_destino [1] $end
$var wire 1 t# gestion_llamadas_inst|piso_destino [0] $end
$var wire 1 u# control_puertas_inst|estado_puerta [1] $end
$var wire 1 v# control_puertas_inst|estado_puerta [0] $end
$var wire 1 w# control_movimiento_inst|piso_int [31] $end
$var wire 1 x# control_movimiento_inst|piso_int [30] $end
$var wire 1 y# control_movimiento_inst|piso_int [29] $end
$var wire 1 z# control_movimiento_inst|piso_int [28] $end
$var wire 1 {# control_movimiento_inst|piso_int [27] $end
$var wire 1 |# control_movimiento_inst|piso_int [26] $end
$var wire 1 }# control_movimiento_inst|piso_int [25] $end
$var wire 1 ~# control_movimiento_inst|piso_int [24] $end
$var wire 1 !$ control_movimiento_inst|piso_int [23] $end
$var wire 1 "$ control_movimiento_inst|piso_int [22] $end
$var wire 1 #$ control_movimiento_inst|piso_int [21] $end
$var wire 1 $$ control_movimiento_inst|piso_int [20] $end
$var wire 1 %$ control_movimiento_inst|piso_int [19] $end
$var wire 1 &$ control_movimiento_inst|piso_int [18] $end
$var wire 1 '$ control_movimiento_inst|piso_int [17] $end
$var wire 1 ($ control_movimiento_inst|piso_int [16] $end
$var wire 1 )$ control_movimiento_inst|piso_int [15] $end
$var wire 1 *$ control_movimiento_inst|piso_int [14] $end
$var wire 1 +$ control_movimiento_inst|piso_int [13] $end
$var wire 1 ,$ control_movimiento_inst|piso_int [12] $end
$var wire 1 -$ control_movimiento_inst|piso_int [11] $end
$var wire 1 .$ control_movimiento_inst|piso_int [10] $end
$var wire 1 /$ control_movimiento_inst|piso_int [9] $end
$var wire 1 0$ control_movimiento_inst|piso_int [8] $end
$var wire 1 1$ control_movimiento_inst|piso_int [7] $end
$var wire 1 2$ control_movimiento_inst|piso_int [6] $end
$var wire 1 3$ control_movimiento_inst|piso_int [5] $end
$var wire 1 4$ control_movimiento_inst|piso_int [4] $end
$var wire 1 5$ control_movimiento_inst|piso_int [3] $end
$var wire 1 6$ control_movimiento_inst|piso_int [2] $end
$var wire 1 7$ control_movimiento_inst|piso_int [1] $end
$var wire 1 8$ control_movimiento_inst|piso_int [0] $end
$var wire 1 9$ gestion_llamadas_inst|destino_int [31] $end
$var wire 1 :$ gestion_llamadas_inst|destino_int [30] $end
$var wire 1 ;$ gestion_llamadas_inst|destino_int [29] $end
$var wire 1 <$ gestion_llamadas_inst|destino_int [28] $end
$var wire 1 =$ gestion_llamadas_inst|destino_int [27] $end
$var wire 1 >$ gestion_llamadas_inst|destino_int [26] $end
$var wire 1 ?$ gestion_llamadas_inst|destino_int [25] $end
$var wire 1 @$ gestion_llamadas_inst|destino_int [24] $end
$var wire 1 A$ gestion_llamadas_inst|destino_int [23] $end
$var wire 1 B$ gestion_llamadas_inst|destino_int [22] $end
$var wire 1 C$ gestion_llamadas_inst|destino_int [21] $end
$var wire 1 D$ gestion_llamadas_inst|destino_int [20] $end
$var wire 1 E$ gestion_llamadas_inst|destino_int [19] $end
$var wire 1 F$ gestion_llamadas_inst|destino_int [18] $end
$var wire 1 G$ gestion_llamadas_inst|destino_int [17] $end
$var wire 1 H$ gestion_llamadas_inst|destino_int [16] $end
$var wire 1 I$ gestion_llamadas_inst|destino_int [15] $end
$var wire 1 J$ gestion_llamadas_inst|destino_int [14] $end
$var wire 1 K$ gestion_llamadas_inst|destino_int [13] $end
$var wire 1 L$ gestion_llamadas_inst|destino_int [12] $end
$var wire 1 M$ gestion_llamadas_inst|destino_int [11] $end
$var wire 1 N$ gestion_llamadas_inst|destino_int [10] $end
$var wire 1 O$ gestion_llamadas_inst|destino_int [9] $end
$var wire 1 P$ gestion_llamadas_inst|destino_int [8] $end
$var wire 1 Q$ gestion_llamadas_inst|destino_int [7] $end
$var wire 1 R$ gestion_llamadas_inst|destino_int [6] $end
$var wire 1 S$ gestion_llamadas_inst|destino_int [5] $end
$var wire 1 T$ gestion_llamadas_inst|destino_int [4] $end
$var wire 1 U$ gestion_llamadas_inst|destino_int [3] $end
$var wire 1 V$ gestion_llamadas_inst|destino_int [2] $end
$var wire 1 W$ gestion_llamadas_inst|destino_int [1] $end
$var wire 1 X$ gestion_llamadas_inst|destino_int [0] $end
$upscope $end
$upscope $end
$enddefinitions $end
#0
$dumpvars
0!
0"
b0 #
b0 $
0%
b0 &
0'
0*
0)
0(
0+
0.
0-
0,
x/
00
11
x2
13
14
15
06
07
08
09
0:
0;
0<
0=
0>
0?
0@
0A
0B
0C
0D
1E
1F
1G
0H
0I
0J
0K
1L
1M
0N
0O
1P
1Q
1R
0S
1T
0U
0V
1W
0X
0Y
0Z
1[
0\
1]
1^
0_
0`
0a
0b
1c
0d
1e
0f
1g
1h
0i
0j
0k
0l
1m
0n
1o
1p
1q
0r
0s
0t
0u
0v
1w
0x
1y
0z
1{
1|
0}
0~
0!!
0"!
1#!
0$!
1%!
1&!
1'!
0(!
0)!
0*!
0+!
0,!
1-!
0.!
1/!
00!
11!
12!
03!
14!
15!
16!
17!
08!
19!
0:!
0;!
0<!
1=!
1>!
1?!
0@!
0A!
0B!
0C!
0D!
1E!
0F!
1G!
0H!
1I!
1J!
0K!
0L!
0M!
0N!
1O!
0P!
1Q!
1R!
1S!
0T!
0U!
0V!
1W!
0X!
0Y!
0Z!
1[!
1\!
1]!
0^!
0_!
1`!
0a!
1b!
0c!
0d!
0e!
1f!
0g!
1h!
1i!
0j!
0k!
0l!
0m!
1n!
0o!
1p!
1q!
1r!
0s!
0t!
1u!
1v!
0w!
0x!
0y!
1z!
0{!
1|!
1}!
1~!
0!"
0""
0#"
0$"
0%"
1&"
0'"
1("
1)"
1*"
0+"
0,"
1-"
1."
1/"
00"
01"
02"
13"
04"
05"
06"
17"
08"
09"
0:"
0;"
0<"
0="
0>"
0?"
0@"
0A"
0B"
0C"
0D"
0E"
0F"
0G"
0H"
1I"
0J"
1K"
0L"
0M"
1N"
0O"
0P"
0Q"
0R"
1S"
0T"
0U"
0V"
0W"
1X"
0Y"
0Z"
0["
1\"
0]"
0^"
0_"
1`"
0a"
0b"
0c"
1d"
0e"
0f"
0g"
1h"
0i"
0j"
0k"
1l"
0m"
0n"
0o"
1p"
0q"
0r"
0s"
1t"
0u"
0v"
0w"
1x"
0y"
0z"
0{"
1|"
1}"
0~"
0!#
0"#
1##
0$#
0%#
0&#
1'#
0(#
0)#
0*#
1+#
0,#
0-#
0.#
1/#
10#
01#
12#
13#
14#
05#
06#
07#
08#
09#
0:#
0;#
0<#
0=#
0>#
0?#
0@#
0A#
0B#
0C#
0D#
0E#
0F#
0G#
0H#
0I#
0J#
0K#
0L#
0l#
0k#
0j#
0i#
0h#
0g#
0f#
0e#
0d#
0c#
0b#
0a#
0`#
0_#
0^#
0]#
0\#
0[#
0Z#
0Y#
0X#
0W#
0V#
0U#
0T#
0S#
0R#
0Q#
0P#
0O#
0N#
0M#
0q#
0p#
0o#
0n#
0m#
0t#
0s#
0r#
0v#
0u#
08$
07$
06$
05$
04$
03$
02$
01$
00$
0/$
0.$
0-$
0,$
0+$
0*$
0)$
0($
0'$
0&$
0%$
0$$
0#$
0"$
0!$
0~#
0}#
0|#
0{#
0z#
0y#
0x#
0w#
0X$
0W$
0V$
zU$
zT$
zS$
zR$
zQ$
zP$
zO$
zN$
zM$
zL$
zK$
zJ$
zI$
zH$
zG$
zF$
zE$
zD$
zC$
zB$
zA$
z@$
z?$
z>$
z=$
z<$
z;$
z:$
z9$
$end
#15000
1!
1?
1@
0/
#30000
b1 $
0!
1F#
0?
0@
1/
#45000
1!
1?
1@
0/
#60000
b11 $
b10 $
0!
0F#
1E#
0?
0@
1/
#75000
1!
1?
1@
0/
#90000
b11 $
0!
1F#
0?
0@
1/
#105000
1!
1?
1@
0/
#120000
1"
b111 $
b101 $
b100 $
0!
16
0F#
0E#
1D#
0?
0@
1/
#135000
1!
1?
1@
0/
#150000
b101 $
0!
1F#
0?
0@
1/
#165000
1!
1?
1@
0/
#170000
b1 #
b1 &
1?"
1>"
1/
#180000
b111 $
b110 $
0!
0F#
1E#
0?
0@
0/
#190000
1%
1A
1B
1/
#195000
1!
1?
1@
0/
#210000
b111 $
0!
1F#
0?
0@
1/
#225000
1!
1?
1@
0/
#230000
0"
06
1/
#240000
b1111 $
b1011 $
b1001 $
b1000 $
0!
0F#
0E#
0D#
1G#
0?
0@
0/
#255000
1!
1?
1@
1/
#270000
b1001 $
0!
1F#
0?
0@
0/
#285000
1!
1?
1@
1/
#300000
b1011 $
b1010 $
0!
0F#
1E#
0?
0@
0/
#310000
0%
0A
0B
1/
#315000
1!
1?
1@
0/
#330000
b1011 $
0!
1F#
0?
0@
1/
1H#
#340000
b11 #
b11 &
b10 #
b10 &
0?"
1D"
0>"
1E"
0/
1F"
#345000
1!
1?
1@
1/
1I#
1p#
0K"
1G"
1J#
1L"
1;
1'
#360000
b1111 $
b1101 $
b1100 $
0!
0F#
0E#
1D#
0?
0@
0/
