PROYECTOFINAL/ASCENSORFINALL/memoria/simulation/qsim/memoria.msim.vcd
$comment
	File created using the following command:
		vcd file memoria.msim.vcd -direction
$end
$date
	Sun Jun 08 17:46:13 2025
$end
$version
	ModelSim Version 10.1d
$end
$timescale
	1ps
$end
$scope module memoria_vlg_vec_tst $end
$var reg 3 ! addr [2:0] $end
$var reg 1 " clk $end
$var reg 1 # data_in [0:0] $end
$var reg 1 $ reset $end
$var reg 1 % we $end
$var wire 1 & data_out [0] $end
$var wire 1 ' sampler $end
$scope module i1 $end
$var wire 1 ( gnd $end
$var wire 1 ) vcc $end
$var wire 1 * unknown $end
$var tri1 1 + devclrn $end
$var tri1 1 , devpor $end
$var tri1 1 - devoe $end
$var wire 1 . data_out[0]~output_o $end
$var wire 1 / clk~input_o $end
$var wire 1 0 clk~inputclkctrl_outclk $end
$var wire 1 1 data_in[0]~input_o $end
$var wire 1 2 addr[2]~input_o $end
$var wire 1 3 we~input_o $end
$var wire 1 4 addr[0]~input_o $end
$var wire 1 5 addr[1]~input_o $end
$var wire 1 6 mem[4][0]~0_combout $end
$var wire 1 7 mem[4][0]~1_combout $end
$var wire 1 8 reset~input_o $end
$var wire 1 9 reset~inputclkctrl_outclk $end
$var wire 1 : mem[4][0]~q $end
$var wire 1 ; mem[2][0]~2_combout $end
$var wire 1 < mem[2][0]~3_combout $end
$var wire 1 = mem[2][0]~q $end
$var wire 1 > mem[1][0]~4_combout $end
$var wire 1 ? mem[3][0]~7_combout $end
$var wire 1 @ mem[3][0]~q $end
$var wire 1 A mem[1][0]~5_combout $end
$var wire 1 B mem[1][0]~q $end
$var wire 1 C mem[0][0]~6_combout $end
$var wire 1 D mem[0][0]~q $end
$var wire 1 E Mux0~0_combout $end
$var wire 1 F Mux0~1_combout $end
$var wire 1 G Mux0~2_combout $end
$var wire 1 H data_out[0]~reg0_q $end
$upscope $end
$upscope $end
$enddefinitions $end
#0
$dumpvars
b0 !
0"
b0 #
0$
0%
0&
x'
0(
1)
x*
1+
1,
1-
0.
0/
00
01
02
03
04
05
06
07
08
09
0:
0;
0<
0=
0>
0?
0@
0A
0B
0C
0D
0E
0F
0G
0H
$end
#15000
1"
1/
10
0'
#20000
1%
13
1'
1;
#30000
b1 !
0"
14
0/
00
0'
1>
0;
#40000
b1 #
11
1'
1A
#45000
1"
1/
10
0'
1B
1E
1F
1G
#60000
b11 !
b10 !
0"
04
15
0/
00
1'
0E
0>
1;
0F
1?
0?
1<
0G
#75000
1"
1/
10
0'
1=
1F
1G
#90000
b11 !
0"
14
0/
00
1'
1E
1>
0;
0F
1?
0G
#105000
1"
1/
10
0'
1@
1F
1G
#120000
b111 !
b101 !
b100 !
0"
04
05
12
0/
00
1'
0E
0>
16
0G
0F
17
#130000
b0 #
01
0'
07
#135000
1"
1/
10
1'
#150000
b101 !
0"
14
0/
00
0'
1E
06
1F
#160000
b1 #
11
1'
#165000
1"
1/
10
0'
#180000
b111 !
b110 !
0"
04
15
0/
00
1'
0E
#195000
1"
1/
10
0'
#210000
b111 !
0"
14
0/
00
1'
1E
#225000
1"
1/
10
0'
#240000
b11 !
b1 !
b0 !
0"
04
05
02
0/
00
1'
0E
1;
1G
0F
1C
0G
#255000
1"
1/
10
0'
1D
1E
1F
1G
#270000
b1 !
0"
14
0/
00
1'
1>
0;
#285000
1"
1/
10
0'
1H
1.
1&
#300000
b0 #
b11 !
b10 !
0"
01
04
15
0/
00
1'
0?
0E
0>
1;
1?
0<
#315000
1"
1/
10
0'
0=
0F
0G
#330000
b11 !
0"
14
0/
00
1'
1E
1>
0;
1F
0?
1G
#345000
1"
1/
10
0'
0@
0F
0G
#360000
b111 !
b101 !
b100 !
0"
04
05
12
0/
00
1'
0>
16
1F
0A
1A
#375000
1"
1/
10
0'
0H
0.
0&
#390000
b101 !
0"
14
0/
00
1'
06
#405000
1"
1/
10
0'
#420000
b111 !
b110 !
0"
04
15
0/
00
1'
0E
0F
#435000
1"
1/
10
0'
#450000
b111 !
0"
14
0/
00
1'
1E
#465000
1"
1/
10
0'
#480000
b11 !
b1 !
b0 !
0"
04
05
02
0/
00
1'
1;
1F
0C
1G
#495000
1"
1/
10
0'
0D
1H
0E
1.
1&
0F
0G
#510000
b1 !
0"
14
0/
00
1'
1E
1>
0;
1F
0A
1G
#525000
1"
1/
10
0'
0B
0E
0F
0G
#540000
b11 !
b10 !
0"
04
15
0/
00
1'
0>
1;
#555000
1"
1/
10
0'
0H
0.
0&
#570000
b11 !
0"
14
0/
00
1'
1E
1>
0;
#585000
1"
1/
10
0'
#600000
b111 !
b101 !
b100 !
0"
04
05
12
0/
00
1'
0E
0>
16
1F
0F
#615000
1"
1/
10
0'
#630000
b101 !
0"
14
0/
00
1'
06
#645000
1"
1/
10
0'
#660000
b111 !
b110 !
0"
04
15
0/
00
1'
#675000
1"
1/
10
0'
#690000
b111 !
0"
14
0/
00
1'
1E
#705000
1"
1/
10
0'
#720000
b11 !
b1 !
b0 !
0"
04
05
02
0/
00
1'
0E
1;
1F
0F
1G
0G
#735000
1"
1/
10
0'
#750000
b1 !
0"
14
0/
00
1'
1>
0;
#765000
1"
1/
10
0'
#780000
b11 !
b10 !
0"
04
15
0/
00
1'
0>
1;
#795000
1"
1/
10
0'
#810000
b11 !
0"
14
0/
00
1'
1E
1>
0;
#825000
1"
1/
10
0'
#840000
b111 !
b101 !
b100 !
0"
04
05
12
0/
00
1'
0E
0>
16
1F
0F
#855000
1"
1/
10
0'
#870000
b101 !
0"
14
0/
00
1'
06
#885000
1"
1/
10
0'
#900000
b111 !
b110 !
0"
04
15
0/
00
1'
#915000
1"
1/
10
0'
#930000
b111 !
0"
14
0/
00
1'
1E
#945000
1"
1/
10
0'
#960000
b11 !
b1 !
b0 !
0"
04
05
02
0/
00
1'
0E
1;
1F
0F
1G
0G
#975000
1"
1/
10
0'
#990000
b1 !
0"
14
0/
00
1'
1>
0;
