PROYECTOFINAL/ASCENSORFINALL/personas/simulation/qsim/personas.msim.vcd
$comment
	File created using the following command:
		vcd file personas.msim.vcd -direction
$end
$date
	Thu May 08 15:54:04 2025
$end
$version
	ModelSim Version 10.1d
$end
$timescale
	1ps
$end
$scope module personas_vlg_vec_tst $end
$var reg 1 ! clk $end
$var reg 4 " personas_entraron [3:0] $end
$var reg 4 # personas_salieron [3:0] $end
$var reg 1 $ rst $end
$var wire 1 % personas_actuales [4] $end
$var wire 1 & personas_actuales [3] $end
$var wire 1 ' personas_actuales [2] $end
$var wire 1 ( personas_actuales [1] $end
$var wire 1 ) personas_actuales [0] $end
$var wire 1 * sobrepeso $end
$var wire 1 + sampler $end
$scope module i1 $end
$var wire 1 , gnd $end
$var wire 1 - vcc $end
$var wire 1 . unknown $end
$var tri1 1 / devclrn $end
$var tri1 1 0 devpor $end
$var tri1 1 1 devoe $end
$var wire 1 2 sobrepeso~output_o $end
$var wire 1 3 personas_actuales[0]~output_o $end
$var wire 1 4 personas_actuales[1]~output_o $end
$var wire 1 5 personas_actuales[2]~output_o $end
$var wire 1 6 personas_actuales[3]~output_o $end
$var wire 1 7 personas_actuales[4]~output_o $end
$var wire 1 8 clk~input_o $end
$var wire 1 9 clk~inputclkctrl_outclk $end
$var wire 1 : personas_salieron[3]~input_o $end
$var wire 1 ; personas_entraron[3]~input_o $end
$var wire 1 < personas_entraron[2]~input_o $end
$var wire 1 = personas_entraron[1]~input_o $end
$var wire 1 > personas_salieron[1]~input_o $end
$var wire 1 ? personas_entraron[0]~input_o $end
$var wire 1 @ personas_salieron[0]~input_o $end
$var wire 1 A Add0~0_combout $end
$var wire 1 B total[0]~5_combout $end
$var wire 1 C ~GND~combout $end
$var wire 1 D rst~input_o $end
$var wire 1 E rst~inputclkctrl_outclk $end
$var wire 1 F Add0~7 $end
$var wire 1 G Add0~8_combout $end
$var wire 1 H personas_salieron[2]~input_o $end
$var wire 1 I total[0]~6 $end
$var wire 1 J total[1]~8 $end
$var wire 1 K total[2]~10 $end
$var wire 1 L total[3]~12 $end
$var wire 1 M total[4]~13_combout $end
$var wire 1 N LessThan1~0_combout $end
$var wire 1 O LessThan1~1_combout $end
$var wire 1 P Add0~1 $end
$var wire 1 Q Add0~2_combout $end
$var wire 1 R total[1]~7_combout $end
$var wire 1 S Add0~3 $end
$var wire 1 T Add0~4_combout $end
$var wire 1 U total[2]~9_combout $end
$var wire 1 V Add0~5 $end
$var wire 1 W Add0~6_combout $end
$var wire 1 X total[3]~11_combout $end
$var wire 1 Y LessThan2~0_combout $end
$var wire 1 Z LessThan2~1_combout $end
$var wire 1 [ total [4] $end
$var wire 1 \ total [3] $end
$var wire 1 ] total [2] $end
$var wire 1 ^ total [1] $end
$var wire 1 _ total [0] $end
$upscope $end
$upscope $end
$enddefinitions $end
#0
$dumpvars
0!
b0 "
b0 #
0$
0)
0(
0'
0&
0%
0*
x+
0,
1-
x.
1/
10
11
02
03
04
05
06
07
08
09
0:
0;
0<
0=
0>
0?
0@
0A
0B
0C
0D
0E
1F
0G
0H
1I
0J
1K
0L
0M
0N
0O
0P
0Q
0R
1S
0T
0U
0V
0W
0X
0Y
0Z
0_
0^
0]
0\
0[
$end
#15000
1!
18
19
0+
#30000
0!
08
09
1+
#45000
1!
18
19
0+
#60000
0!
08
09
1+
#75000
1!
18
19
0+
#90000
0!
08
09
1+
#105000
1!
18
19
0+
#120000
0!
08
09
1+
#130000
b1000 "
b1100 "
b1110 "
b1111 "
1?
1=
1<
1;
0+
1A
1Q
1T
1W
1B
1R
1U
1X
#135000
1!
18
19
1+
1\
1]
1^
1_
1Y
0F
0W
1V
0T
0S
0Q
1P
0A
16
15
14
13
1&
1'
1(
1)
1Z
1G
0X
1W
0U
1T
0R
1Q
0B
12
1*
1M
1X
1U
1R
#150000
0!
08
09
0+
#160000
b111 "
b11 "
b1 "
b0 "
0?
0=
0<
0;
1+
0P
1A
0Q
0T
0W
1S
1Q
1B
0R
0U
0X
0V
1T
1R
1F
1W
1U
0G
1X
0M
#165000
1!
18
19
0+
#180000
0!
08
09
1+
#195000
1!
18
19
0+
#210000
0!
08
09
1+
#225000
1!
18
19
0+
#240000
0!
08
09
1+
#255000
1!
18
19
0+
#270000
0!
08
09
1+
#285000
1!
18
19
0+
#300000
0!
08
09
1+
#315000
1!
18
19
0+
#330000
0!
08
09
1+
#345000
1!
18
19
0+
#360000
0!
08
09
1+
#375000
1!
18
19
0+
#390000
0!
08
09
1+
#405000
1!
18
19
0+
#420000
0!
08
09
1+
#435000
1!
18
19
0+
#450000
0!
08
09
1+
#465000
1!
18
19
0+
#480000
0!
08
09
1+
#495000
1!
18
19
0+
#510000
0!
08
09
1+
#525000
1!
18
19
0+
#540000
0!
08
09
1+
#555000
1!
18
19
0+
#570000
0!
08
09
1+
#585000
1!
18
19
0+
#600000
0!
08
09
1+
#615000
1!
18
19
0+
#630000
0!
08
09
1+
#645000
1!
18
19
0+
#660000
0!
08
09
1+
#675000
1!
18
19
0+
#690000
0!
08
09
1+
#705000
1!
18
19
0+
#720000
0!
08
09
1+
#735000
1!
18
19
0+
#750000
0!
08
09
1+
#765000
1!
18
19
0+
#780000
0!
08
09
1+
#795000
1!
18
19
0+
#810000
0!
08
09
1+
#825000
1!
18
19
0+
#840000
0!
08
09
1+
#855000
1!
18
19
0+
#870000
0!
08
09
1+
#885000
1!
18
19
0+
#900000
0!
08
09
1+
#915000
1!
18
19
0+
#930000
0!
08
09
1+
#945000
1!
18
19
0+
#960000
0!
08
09
1+
#975000
1!
18
19
0+
#990000
0!
08
09
1+
