PROYECTOFINAL/ASCENSORFINALL/luces/simulation/qsim/luces.msim.vcd
$comment
	File created using the following command:
		vcd file luces.msim.vcd -direction
$end
$date
	Thu May 08 15:52:04 2025
$end
$version
	ModelSim Version 10.1d
$end
$timescale
	1ps
$end
$scope module luces_vlg_vec_tst $end
$var reg 1 ! clk $end
$var reg 1 " sensor_inactivo $end
$var wire 1 # luz_cabina $end
$var wire 1 $ sampler $end
$scope module i1 $end
$var wire 1 % gnd $end
$var wire 1 & vcc $end
$var wire 1 ' unknown $end
$var tri1 1 ( devclrn $end
$var tri1 1 ) devpor $end
$var tri1 1 * devoe $end
$var wire 1 + luz_cabina~output_o $end
$var wire 1 , clk~input_o $end
$var wire 1 - sensor_inactivo~input_o $end
$var wire 1 . state~feeder_combout $end
$var wire 1 / state~q $end
$upscope $end
$upscope $end
$enddefinitions $end
#0
$dumpvars
0!
0"
1#
x$
0%
1&
x'
1(
1)
1*
1+
0,
0-
0.
0/
$end
#15000
1!
1,
0$
#30000
0!
0,
1$
#45000
1!
1,
0$
#60000
0!
0,
1$
#75000
1!
1,
0$
#90000
0!
0,
1$
#105000
1!
1,
0$
#120000
0!
0,
1$
#135000
1!
1,
0$
#150000
0!
0,
1$
#165000
1!
1,
0$
#180000
0!
0,
1$
#195000
1!
1,
0$
#210000
0!
0,
1$
#225000
1!
1,
0$
#240000
0!
0,
1$
#255000
1!
1,
0$
#260000
1"
1-
1$
1.
#270000
0!
0,
0$
#285000
1!
1,
1$
1/
0+
0#
#300000
0!
0,
0$
#315000
1!
1,
1$
#330000
0!
0,
0$
#340000
0"
0-
1$
0.
#345000
1!
1,
0$
0/
1+
1#
#360000
0!
0,
1$
#375000
1!
1,
0$
#390000
0!
0,
1$
#405000
1!
1,
0$
#420000
0!
0,
1$
#435000
1!
1,
0$
#450000
0!
0,
1$
#465000
1!
1,
0$
#480000
0!
0,
1$
#495000
1!
1,
0$
#510000
0!
0,
1$
#525000
1!
1,
0$
#540000
0!
0,
1$
#555000
1!
1,
0$
#570000
0!
0,
1$
#585000
1!
1,
0$
#600000
0!
0,
1$
#615000
1!
1,
0$
#630000
0!
0,
1$
#645000
1!
1,
0$
#660000
0!
0,
1$
#675000
1!
1,
0$
#690000
0!
0,
1$
#705000
1!
1,
0$
#720000
0!
0,
1$
#735000
1!
1,
0$
#750000
0!
0,
1$
#765000
1!
1,
0$
#780000
0!
0,
1$
#795000
1!
1,
0$
#810000
0!
0,
1$
#825000
1!
1,
0$
#840000
0!
0,
1$
#855000
1!
1,
0$
#870000
0!
0,
1$
#885000
1!
1,
0$
#900000
0!
0,
1$
#915000
1!
1,
0$
#930000
0!
0,
1$
#945000
1!
1,
0$
#960000
0!
0,
1$
#975000
1!
1,
0$
#990000
0!
0,
1$
