PROYECTOFINAL/ASCENSORFINALL/motores/simulation/qsim/motores.msim.vcd
$comment
	File created using the following command:
		vcd file motores.msim.vcd -direction
$end
$date
	Sun Jun 08 17:50:26 2025
$end
$version
	ModelSim Version 10.1d
$end
$timescale
	1ps
$end
$scope module motores_vlg_vec_tst $end
$var reg 1 ! clk $end
$var reg 1 " mover $end
$var reg 5 # piso_actual [4:0] $end
$var reg 5 $ piso_destino [4:0] $end
$var reg 1 % puerta_cmd $end
$var reg 1 & reset $end
$var wire 1 ' in1_motor $end
$var wire 1 ( in2_motor $end
$var wire 1 ) pwm_motor $end
$var wire 1 * pwm_puerta $end
$var wire 1 + sampler $end
$scope module i1 $end
$var wire 1 , gnd $end
$var wire 1 - vcc $end
$var wire 1 . unknown $end
$var tri1 1 / devclrn $end
$var tri1 1 0 devpor $end
$var tri1 1 1 devoe $end
$var wire 1 2 piso_actual[3]~input_o $end
$var wire 1 3 piso_actual[4]~input_o $end
$var wire 1 4 piso_destino[3]~input_o $end
$var wire 1 5 piso_destino[4]~input_o $end
$var wire 1 6 pwm_motor~output_o $end
$var wire 1 7 in1_motor~output_o $end
$var wire 1 8 in2_motor~output_o $end
$var wire 1 9 pwm_puerta~output_o $end
$var wire 1 : clk~input_o $end
$var wire 1 ; clk~inputclkctrl_outclk $end
$var wire 1 < reset~input_o $end
$var wire 1 = piso_destino[2]~input_o $end
$var wire 1 > piso_actual[1]~input_o $end
$var wire 1 ? piso_actual[2]~input_o $end
$var wire 1 @ piso_destino[1]~input_o $end
$var wire 1 A LessThan3~0_combout $end
$var wire 1 B piso_destino[0]~input_o $end
$var wire 1 C LessThan4~1_combout $end
$var wire 1 D piso_actual[0]~input_o $end
$var wire 1 E LessThan3~1_combout $end
$var wire 1 F LessThan4~0_combout $end
$var wire 1 G LessThan4~2_combout $end
$var wire 1 H mover~input_o $end
$var wire 1 I en_movimiento~0_combout $end
$var wire 1 J en_movimiento~q $end
$var wire 1 K duty_asc~0_combout $end
$var wire 1 L cnt_pwm[0]~16_combout $end
$var wire 1 M cnt_pwm[12]~48_combout $end
$var wire 1 N LessThan0~2_combout $end
$var wire 1 O LessThan0~0_combout $end
$var wire 1 P LessThan0~1_combout $end
$var wire 1 Q cnt_pwm[12]~49_combout $end
$var wire 1 R cnt_pwm[12]~50_combout $end
$var wire 1 S cnt_pwm[0]~17 $end
$var wire 1 T cnt_pwm[1]~18_combout $end
$var wire 1 U cnt_pwm[1]~19 $end
$var wire 1 V cnt_pwm[2]~20_combout $end
$var wire 1 W cnt_pwm[2]~21 $end
$var wire 1 X cnt_pwm[3]~22_combout $end
$var wire 1 Y cnt_pwm[3]~23 $end
$var wire 1 Z cnt_pwm[4]~24_combout $end
$var wire 1 [ cnt_pwm[4]~25 $end
$var wire 1 \ cnt_pwm[5]~26_combout $end
$var wire 1 ] cnt_pwm[5]~27 $end
$var wire 1 ^ cnt_pwm[6]~28_combout $end
$var wire 1 _ cnt_pwm[6]~29 $end
$var wire 1 ` cnt_pwm[7]~30_combout $end
$var wire 1 a cnt_pwm[7]~31 $end
$var wire 1 b cnt_pwm[8]~32_combout $end
$var wire 1 c cnt_pwm[8]~33 $end
$var wire 1 d cnt_pwm[9]~34_combout $end
$var wire 1 e cnt_pwm[9]~35 $end
$var wire 1 f cnt_pwm[10]~36_combout $end
$var wire 1 g cnt_pwm[10]~37 $end
$var wire 1 h cnt_pwm[11]~38_combout $end
$var wire 1 i cnt_pwm[11]~39 $end
$var wire 1 j cnt_pwm[12]~40_combout $end
$var wire 1 k cnt_pwm[12]~41 $end
$var wire 1 l cnt_pwm[13]~42_combout $end
$var wire 1 m cnt_pwm[13]~43 $end
$var wire 1 n cnt_pwm[14]~44_combout $end
$var wire 1 o cnt_pwm[14]~45 $end
$var wire 1 p cnt_pwm[15]~46_combout $end
$var wire 1 q duty_asc~1_combout $end
$var wire 1 r dir_actual~0_combout $end
$var wire 1 s duty_asc~2_combout $end
$var wire 1 t duty_asc~3_combout $end
$var wire 1 u duty_asc~4_combout $end
$var wire 1 v duty_asc~5_combout $end
$var wire 1 w duty_asc~6_combout $end
$var wire 1 x duty_asc~7_combout $end
$var wire 1 y duty_asc~8_combout $end
$var wire 1 z duty_asc~9_combout $end
$var wire 1 { duty_asc~10_combout $end
$var wire 1 | duty_asc~11_combout $end
$var wire 1 } duty_asc~12_combout $end
$var wire 1 ~ LessThan1~1_cout $end
$var wire 1 !! LessThan1~3_cout $end
$var wire 1 "! LessThan1~5_cout $end
$var wire 1 #! LessThan1~7_cout $end
$var wire 1 $! LessThan1~9_cout $end
$var wire 1 %! LessThan1~11_cout $end
$var wire 1 &! LessThan1~13_cout $end
$var wire 1 '! LessThan1~15_cout $end
$var wire 1 (! LessThan1~17_cout $end
$var wire 1 )! LessThan1~19_cout $end
$var wire 1 *! LessThan1~21_cout $end
$var wire 1 +! LessThan1~23_cout $end
$var wire 1 ,! LessThan1~25_cout $end
$var wire 1 -! LessThan1~26_combout $end
$var wire 1 .! pwm_motor~0_combout $end
$var wire 1 /! pwm_motor~reg0_q $end
$var wire 1 0! dir_actual~1_combout $end
$var wire 1 1! dir_actual~q $end
$var wire 1 2! in1_motor~0_combout $end
$var wire 1 3! in1_motor~reg0_q $end
$var wire 1 4! in2_motor~0_combout $end
$var wire 1 5! in2_motor~reg0_q $end
$var wire 1 6! puerta_cmd~input_o $end
$var wire 1 7! duty_puerta~0_combout $end
$var wire 1 8! LessThan2~2_combout $end
$var wire 1 9! LessThan2~3_combout $end
$var wire 1 :! LessThan2~4_combout $end
$var wire 1 ;! LessThan2~0_combout $end
$var wire 1 <! LessThan2~1_combout $end
$var wire 1 =! LessThan2~5_combout $end
$var wire 1 >! LessThan2~6_combout $end
$var wire 1 ?! LessThan2~7_combout $end
$var wire 1 @! LessThan2~8_combout $end
$var wire 1 A! LessThan2~9_combout $end
$var wire 1 B! pwm_puerta~0_combout $end
$var wire 1 C! pwm_puerta~1_combout $end
$var wire 1 D! pwm_puerta~reg0_q $end
$var wire 1 E! cnt_pwm [15] $end
$var wire 1 F! cnt_pwm [14] $end
$var wire 1 G! cnt_pwm [13] $end
$var wire 1 H! cnt_pwm [12] $end
$var wire 1 I! cnt_pwm [11] $end
$var wire 1 J! cnt_pwm [10] $end
$var wire 1 K! cnt_pwm [9] $end
$var wire 1 L! cnt_pwm [8] $end
$var wire 1 M! cnt_pwm [7] $end
$var wire 1 N! cnt_pwm [6] $end
$var wire 1 O! cnt_pwm [5] $end
$var wire 1 P! cnt_pwm [4] $end
$var wire 1 Q! cnt_pwm [3] $end
$var wire 1 R! cnt_pwm [2] $end
$var wire 1 S! cnt_pwm [1] $end
$var wire 1 T! cnt_pwm [0] $end
$var wire 1 U! duty_puerta [15] $end
$var wire 1 V! duty_puerta [14] $end
$var wire 1 W! duty_puerta [13] $end
$var wire 1 X! duty_puerta [12] $end
$var wire 1 Y! duty_puerta [11] $end
$var wire 1 Z! duty_puerta [10] $end
$var wire 1 [! duty_puerta [9] $end
$var wire 1 \! duty_puerta [8] $end
$var wire 1 ]! duty_puerta [7] $end
$var wire 1 ^! duty_puerta [6] $end
$var wire 1 _! duty_puerta [5] $end
$var wire 1 `! duty_puerta [4] $end
$var wire 1 a! duty_puerta [3] $end
$var wire 1 b! duty_puerta [2] $end
$var wire 1 c! duty_puerta [1] $end
$var wire 1 d! duty_puerta [0] $end
$var wire 1 e! duty_asc [15] $end
$var wire 1 f! duty_asc [14] $end
$var wire 1 g! duty_asc [13] $end
$var wire 1 h! duty_asc [12] $end
$var wire 1 i! duty_asc [11] $end
$var wire 1 j! duty_asc [10] $end
$var wire 1 k! duty_asc [9] $end
$var wire 1 l! duty_asc [8] $end
$var wire 1 m! duty_asc [7] $end
$var wire 1 n! duty_asc [6] $end
$var wire 1 o! duty_asc [5] $end
$var wire 1 p! duty_asc [4] $end
$var wire 1 q! duty_asc [3] $end
$var wire 1 r! duty_asc [2] $end
$var wire 1 s! duty_asc [1] $end
$var wire 1 t! duty_asc [0] $end
$upscope $end
$upscope $end
$enddefinitions $end
#0
$dumpvars
0!
0"
b0 #
b10 $
0%
0&
0'
0(
0)
0*
x+
0,
1-
x.
1/
10
11
02
03
04
05
06
07
08
09
0:
0;
0<
0=
0>
0?
1@
1A
0B
0C
0D
1E
0F
0G
0H
0I
0J
0K
1L
1M
1N
1O
1P
1Q
0R
0S
0T
1U
0V
0W
0X
1Y
0Z
0[
0\
1]
0^
0_
0`
1a
0b
0c
0d
1e
0f
0g
0h
1i
0j
0k
0l
1m
0n
0o
0p
0q
0r
0s
0t
0u
0v
0w
0x
0y
0z
0{
0|
0}
0~
0!!
1"!
0#!
1$!
0%!
1&!
0'!
1(!
0)!
1*!
0+!
1,!
1-!
0.!
0/!
00!
01!
02!
03!
04!
05!
06!
07!
18!
19!
1:!
1;!
0<!
1=!
0>!
0?!
0@!
1A!
1B!
1C!
0D!
0T!
0S!
0R!
0Q!
0P!
0O!
0N!
0M!
0L!
0K!
0J!
0I!
0H!
0G!
0F!
0E!
zd!
zc!
zb!
za!
z`!
z_!
z^!
z]!
z\!
z[!
zZ!
0Y!
zX!
0W!
zV!
zU!
zt!
zs!
0r!
0q!
0p!
0o!
0n!
0m!
0l!
0k!
0j!
0i!
0h!
0g!
0f!
0e!
$end
#10000
1"
1H
0+
1r
1I
10!
1y
1s
1|
1{
1v
1q
1w
#15000
1!
1:
1;
1+
11!
1q!
1p!
1o!
1m!
1k!
1j!
1g!
1f!
1T!
1J
1D!
12!
1!!
1S
0L
1.!
19
1*
1T
#30000
0!
0:
0;
0+
#40000
1%
16!
1+
17!
#45000
1!
1:
1;
0+
1W!
1Y!
1S!
0T!
13!
1/!
0A!
0;!
09!
1@!
1>!
0U
0T
0S
1L
17
16
1'
1)
0B!
0:!
1A!
1V
1U
1T
1B!
0V
#50000
b1 #
b11 $
1B
1D
1+
1}
1z
1x
0v
0s
0q
1K
0w
#60000
0!
0:
0;
0+
#75000
1!
1:
1;
1+
1r!
0q!
1n!
1l!
0k!
0j!
0g!
0f!
1T!
1e!
1~
0!!
1S
0L
0U
0T
1V
#90000
0!
0:
0;
0+
#100000
b11 #
b111 $
b101 $
b10 #
b100 $
0B
0@
1=
0D
1>
1+
0}
0|
0{
0x
1v
1s
0y
1t
1u
#105000
1!
1:
1;
0+
0r!
0p!
0o!
0m!
0l!
1j!
1i!
1h!
1g!
1R!
0S!
0T!
0~
1W
0V
1U
1T
0S
1L
1X
0W
1V
0T
0X
#120000
0!
0:
0;
1+
#135000
1!
1:
1;
0+
1T!
1S
0L
1T
#150000
b11 #
b101 $
0!
1B
1D
0:
0;
1+
1}
1{
0s
1q
0u
#165000
1!
1:
1;
0+
1r!
1q!
1o!
0i!
0g!
1f!
1S!
0T!
1!!
0U
0T
0S
1L
0"!
1W
0V
1U
1T
1X
0W
1V
0X
#180000
0!
0:
0;
1+
#195000
1!
1:
1;
0+
1T!
1S
0L
0U
0T
1W
0V
1X
#200000
b111 #
b101 #
b111 $
b100 #
b110 $
0B
1@
0D
0>
1?
1+
0}
1|
1s
1y
1w
#210000
0!
0:
0;
0+
#225000
1!
1:
1;
1+
0r!
1p!
1m!
1k!
1g!
1Q!
0R!
0S!
0T!
1"!
0Y
0X
0W
1V
1U
1T
0S
1L
1Z
1Y
1X
0V
0T
0Z
#240000
0!
0:
0;
0+
#250000
b101 #
b111 $
1B
1D
1+
1}
0s
0q
0w
#255000
1!
1:
1;
0+
1r!
0q!
0k!
0g!
0f!
1T!
1~
1S
0L
0!!
1T
#270000
0!
0:
0;
1+
#285000
1!
1:
1;
0+
1S!
0T!
0U
0T
0S
1L
1V
1U
1T
0V
#300000
b1111 $
b1011 $
b111 #
b1001 $
b110 #
b1000 $
0!
0D
1>
0B
0@
0=
14
0:
0;
1+
1F
0A
0}
0{
0z
1x
0v
1s
0K
0y
0t
1G
0E
1u
00!
#310000
0%
06!
0+
07!
#315000
1!
1:
1;
1+
0W!
0Y!
01!
0r!
0o!
0n!
0m!
1l!
0j!
1i!
0h!
1g!
1T!
0e!
1;!
19!
0@!
0>!
1<!
14!
02!
0~
1S
0L
0<!
1:!
1?!
1!!
0U
0T
0?!
1V
#330000
0!
0:
0;
0+
#345000
1!
1:
1;
1+
1R!
0S!
0T!
15!
03!
1W
0V
1U
1T
0S
1L
18
07
1(
0'
0Y
0X
0W
1V
0T
1Z
1Y
1X
0Z
#350000
b111 #
b1001 $
1B
1D
0+
1}
0|
1{
1z
0x
1v
0s
1q
0u
#360000
0!
0:
0;
1+
#375000
1!
1:
1;
0+
1r!
1q!
0p!
1o!
1n!
0l!
1j!
0i!
0g!
1f!
1T!
0"!
1S
0L
1T
#390000
0!
0:
0;
1+
#400000
b1111 #
b1011 #
b1001 #
b1011 $
b1000 #
b1010 $
0B
1@
0D
0>
0?
12
0+
0}
1|
0z
1s
1y
0F
1A
1w
0G
1E
10!
#405000
1!
1:
1;
1+
11!
0r!
1p!
0n!
1m!
1k!
1g!
1S!
0T!
04!
12!
1"!
0U
0T
0S
1L
1W
0V
1U
1T
0Y
0X
0W
1V
1Z
1Y
1X
0Z
#420000
0!
0:
0;
0+
#435000
1!
1:
1;
1+
1T!
05!
13!
0O
1S
0L
08
17
0(
1'
0P
0U
0T
1W
0V
0Y
0X
1Z
#450000
b1001 #
b1011 $
0!
1B
1D
0:
0;
0+
1}
1z
1x
0v
0s
0q
1K
0w
#465000
1!
1:
1;
1+
1r!
0q!
1n!
1l!
0k!
0j!
0g!
0f!
1P!
0Q!
0R!
0S!
0T!
1e!
1~
0!!
09!
0"!
1[
0Z
1Y
1X
1O
0W
1V
1U
1T
0S
1L
1"!
0:!
1\
0[
1Z
0X
0V
0T
0\
#480000
0!
0:
0;
0+
#495000
1!
1:
1;
1+
1T!
1S
0L
1T
#500000
b1111 $
b1011 #
b1101 $
b1010 #
b1100 $
0D
1>
0B
0@
1=
0+
0}
0|
0{
0x
1v
1s
0y
1t
1u
#510000
0!
0:
0;
1+
#525000
1!
1:
1;
0+
0r!
0p!
0o!
0m!
0l!
1j!
1i!
1h!
1g!
1S!
0T!
0~
0"!
0U
0T
0S
1L
1#!
1V
1U
1T
0V
#540000
0!
0:
0;
1+
#550000
b1011 #
b1101 $
1B
1D
0+
1}
1{
0s
1q
0u
#555000
1!
1:
1;
1+
1r!
1q!
1o!
0i!
0g!
1f!
1T!
1~
1!!
0#!
1S
0L
0!!
0U
0T
1V
#570000
0!
0:
0;
0+
#585000
1!
1:
1;
1+
1R!
0S!
0T!
0~
1W
0V
1U
1T
0S
1L
1!!
1X
0W
1V
0T
0X
#600000
b1111 #
b1101 #
b1111 $
b1100 #
b1110 $
0!
0B
1@
0D
0>
1?
0:
0;
0+
0}
1|
1s
1y
1w
#615000
1!
1:
1;
1+
0r!
1p!
1m!
1k!
1g!
1T!
1S
0L
1T
#630000
0!
0:
0;
0+
#645000
1!
1:
1;
1+
1S!
0T!
0U
0T
0S
1L
1W
0V
1U
1T
1X
0W
1V
0X
#650000
b1101 #
b1111 $
1B
1D
0+
1}
0s
0q
0w
#660000
0!
0:
0;
1+
#675000
1!
1:
1;
0+
1r!
0q!
0k!
0g!
0f!
1T!
0!!
1S
0L
1"!
0U
0T
1W
0V
1X
#690000
0!
0:
0;
1+
#700000
b11111 $
b10111 $
b10011 $
b1111 #
b10001 $
b1110 #
b10000 $
0D
1>
0B
0@
0=
04
15
0+
1F
0A
0}
0{
0z
1x
0v
1s
0K
0y
0t
1G
0E
1u
00!
#705000
1!
1:
1;
1+
01!
0r!
0o!
0n!
0m!
1l!
0j!
1i!
0h!
1g!
1Q!
0R!
0S!
0T!
0e!
14!
02!
1!!
0Y
0X
0W
1V
1U
1T
0S
1L
0"!
1[
0Z
1Y
1X
0V
0T
1#!
1\
0[
1Z
0$!
0\
#720000
0!
0:
0;
0+
#735000
1!
1:
1;
1+
1T!
15!
03!
1S
0L
18
07
1(
0'
1T
#750000
b1111 #
b10001 $
0!
1B
1D
0:
0;
0+
1}
0|
1{
1z
0x
1v
0s
1q
0u
#765000
1!
1:
1;
1+
1r!
1q!
0p!
1o!
1n!
0l!
1j!
0i!
0g!
1f!
1S!
0T!
1~
0#!
1$!
0U
0T
0S
1L
1V
1U
1T
0V
#780000
0!
0:
0;
0+
#795000
1!
1:
1;
1+
1T!
1S
0L
0U
0T
1V
#800000
b11111 #
b10111 #
b10011 #
b10001 #
b10011 $
b10000 #
b10010 $
0B
1@
0D
0>
0?
02
13
0+
0}
1|
0z
1s
1y
0F
1A
1w
0G
1E
10!
#810000
0!
0:
0;
1+
#825000
1!
1:
1;
0+
11!
0r!
1p!
0n!
1m!
1k!
1g!
1R!
0S!
0T!
04!
12!
0~
1W
0V
1U
1T
0S
1L
0Y
0X
0W
1V
0T
1[
0Z
1Y
1X
1\
0[
1Z
0\
#840000
0!
0:
0;
1+
#850000
b10001 #
b10011 $
1B
1D
0+
1}
1z
1x
0v
0s
0q
1K
0w
#855000
1!
1:
1;
1+
1r!
0q!
1n!
1l!
0k!
0j!
0g!
0f!
1T!
1e!
05!
13!
1S
0L
08
17
0(
1'
1T
#870000
0!
0:
0;
0+
#885000
1!
1:
1;
1+
1S!
0T!
0U
0T
0S
1L
1W
0V
1U
1T
0Y
0X
0W
1V
1[
0Z
1Y
1X
1\
0[
1Z
0\
#900000
b10111 $
b10011 #
b10101 $
b10010 #
b10100 $
0!
0D
1>
0B
0@
1=
0:
0;
0+
0}
0|
0{
0x
1v
1s
0y
1t
1u
#915000
1!
1:
1;
1+
0r!
0p!
0o!
0m!
0l!
1j!
1i!
1h!
1g!
1T!
1#!
0O
1S
0L
0U
0T
1W
0V
0Y
0X
1[
0Z
1\
#930000
0!
0:
0;
0+
#945000
1!
1:
1;
1+
1O!
0P!
0Q!
0R!
0S!
0T!
0]
0\
0[
1Z
0!!
1Y
1X
1O
0W
1V
1U
1T
0S
1L
1^
1]
1\
1"!
0Z
0X
0V
0T
0^
#950000
b10011 #
b10101 $
1B
1D
0+
1}
1{
0s
1q
0u
#960000
0!
0:
0;
1+
#975000
1!
1:
1;
0+
1r!
1q!
1o!
0i!
0g!
1f!
1T!
1~
1!!
0#!
1S
0L
0!!
0"!
1T
1"!
1#!
0#!
#990000
0!
0:
0;
1+
