PROYECTOFINAL/ASCENSORFINALL/puerta/simulation/qsim/puerta.msim.vcd
$comment
	File created using the following command:
		vcd file puerta.msim.vcd -direction
$end
$date
	Thu May 08 16:00:12 2025
$end
$version
	ModelSim Version 10.1d
$end
$timescale
	1ps
$end
$scope module puerta_vlg_vec_tst $end
$var reg 1 ! abrir $end
$var reg 1 " cerrar $end
$var reg 1 # clk $end
$var reg 1 $ enable $end
$var reg 1 % fallo_energia $end
$var reg 1 & rst $end
$var wire 1 ' alarma_sonora $end
$var wire 1 ( alarma_visual $end
$var wire 1 ) puerta_abierta $end
$var wire 1 * puerta_cerrada $end
$var wire 1 + sampler $end
$scope module i1 $end
$var wire 1 , gnd $end
$var wire 1 - vcc $end
$var wire 1 . unknown $end
$var tri1 1 / devclrn $end
$var tri1 1 0 devpor $end
$var tri1 1 1 devoe $end
$var wire 1 2 cerrar~input_o $end
$var wire 1 3 enable~input_o $end
$var wire 1 4 abrir~input_o $end
$var wire 1 5 puerta_abierta~output_o $end
$var wire 1 6 puerta_cerrada~output_o $end
$var wire 1 7 alarma_sonora~output_o $end
$var wire 1 8 alarma_visual~output_o $end
$var wire 1 9 clk~input_o $end
$var wire 1 : fallo_energia~input_o $end
$var wire 1 ; estado_actual.BLOQUEO~feeder_combout $end
$var wire 1 < rst~input_o $end
$var wire 1 = estado_actual.BLOQUEO~q $end
$upscope $end
$upscope $end
$enddefinitions $end
#0
$dumpvars
0!
0"
0#
0$
0%
0&
0'
0(
0)
1*
x+
0,
1-
x.
1/
10
11
02
03
04
05
16
07
08
09
0:
0;
0<
0=
$end
#15000
1#
19
0+
#20000
1$
13
1+
#30000
0#
09
0+
#45000
1#
19
1+
#60000
0#
09
0+
#75000
1#
19
1+
#80000
1!
14
0+
#90000
0#
09
1+
#105000
1#
19
0+
#120000
0#
09
1+
#135000
1#
19
0+
#150000
0#
09
1+
#165000
1#
19
0+
#170000
0!
04
1+
#180000
0#
09
0+
#190000
1&
1<
1+
#195000
1#
19
0+
#210000
0#
09
1+
#225000
1#
19
0+
#240000
0#
09
1+
#250000
1"
12
0+
#255000
1#
19
1+
#270000
0#
09
0+
#280000
0&
0<
1+
#285000
1#
19
0+
#300000
0#
09
1+
#315000
1#
19
0+
#330000
0#
09
1+
#345000
1#
19
0+
#350000
1%
1:
1+
1;
#360000
0#
09
0+
#375000
1#
19
1+
1=
18
17
1(
1'
#380000
0"
02
0+
#390000
0#
09
1+
#405000
1#
19
0+
#420000
0#
09
1+
#435000
1#
19
0+
#440000
0$
03
1+
#450000
0#
09
0+
#465000
1#
19
1+
#480000
0%
0#
0:
09
0+
0;
#495000
1#
19
1+
0=
08
07
0(
0'
#510000
0#
09
0+
#525000
1#
19
1+
#540000
0#
09
0+
#555000
1#
19
1+
#570000
0#
09
0+
#585000
1#
19
1+
#600000
0#
09
0+
#615000
1#
19
1+
#630000
0#
09
0+
#645000
1#
19
1+
#660000
0#
09
0+
#675000
1#
19
1+
#690000
0#
09
0+
#705000
1#
19
1+
#720000
0#
09
0+
#735000
1#
19
1+
#750000
0#
09
0+
#765000
1#
19
1+
#780000
0#
09
0+
#795000
1#
19
1+
#810000
0#
09
0+
#825000
1#
19
1+
#840000
0#
09
0+
#855000
1#
19
1+
#870000
0#
09
0+
#885000
1#
19
1+
#900000
0#
09
0+
#915000
1#
19
1+
#930000
0#
09
0+
#945000
1#
19
1+
#960000
0#
09
0+
#975000
1#
19
1+
#990000
0#
09
0+
