PROYECTOFINAL/ASCENSORFINALL/alarmas/simulation/qsim/alarmas.msim.vcd
$comment
	File created using the following command:
		vcd file alarmas.msim.vcd -direction
$end
$date
	Sun Jun 08 17:41:54 2025
$end
$version
	ModelSim Version 10.1d
$end
$timescale
	1ps
$end
$scope module alarmas_vlg_vec_tst $end
$var reg 1 ! clk $end
$var reg 1 " fallo_energia $end
$var reg 1 # puerta_abriendo $end
$var reg 1 $ puerta_cerrando $end
$var reg 1 % reset $end
$var reg 1 & sobrecarga $end
$var wire 1 ' alarma_sonora $end
$var wire 1 ( alarma_visual $end
$var wire 1 ) sampler $end
$scope module i1 $end
$var wire 1 * gnd $end
$var wire 1 + vcc $end
$var wire 1 , unknown $end
$var tri1 1 - devclrn $end
$var tri1 1 . devpor $end
$var tri1 1 / devoe $end
$var wire 1 0 alarma_sonora~output_o $end
$var wire 1 1 alarma_visual~output_o $end
$var wire 1 2 clk~input_o $end
$var wire 1 3 clk~inputclkctrl_outclk $end
$var wire 1 4 sobrecarga~input_o $end
$var wire 1 5 puerta_cerrando~input_o $end
$var wire 1 6 puerta_abriendo~input_o $end
$var wire 1 7 fallo_energia~input_o $end
$var wire 1 8 alarma_sonora~0_combout $end
$var wire 1 9 reset~input_o $end
$var wire 1 : reset~inputclkctrl_outclk $end
$var wire 1 ; alarma_sonora~reg0_q $end
$var wire 1 < alarma_visual~0_combout $end
$var wire 1 = alarma_visual~reg0_q $end
$upscope $end
$upscope $end
$enddefinitions $end
#0
$dumpvars
0!
0"
0#
0$
0%
0&
0'
0(
x)
0*
1+
x,
1-
1.
1/
00
01
02
03
04
05
06
07
08
09
0:
0;
0<
0=
$end
#10000
1%
19
1:
0)
#15000
1!
12
13
1)
#30000
0!
02
03
0)
#40000
1"
17
1)
1<
18
#45000
1!
12
13
0)
#60000
0%
0!
09
02
0:
03
1)
#75000
1!
12
13
0)
1=
1;
11
10
1(
1'
#90000
0!
02
03
1)
#105000
1!
12
13
0)
#120000
0!
02
03
1)
#135000
1!
12
13
0)
#150000
0!
02
03
1)
#165000
1!
12
13
0)
#180000
0!
02
03
1)
#195000
1!
12
13
0)
#200000
0"
07
1)
0<
08
#210000
0!
02
03
0)
#220000
1#
16
1)
1<
18
#225000
1!
12
13
0)
#240000
0!
02
03
1)
#255000
1!
12
13
0)
#270000
0!
02
03
1)
#285000
1!
12
13
0)
#300000
0!
02
03
1)
#315000
1!
12
13
0)
#330000
1$
0!
15
02
03
1)
#345000
1!
12
13
0)
#360000
0#
0!
06
02
03
1)
#375000
1!
12
13
0)
#390000
0!
02
03
1)
#405000
1!
12
13
0)
#420000
0!
02
03
1)
#430000
1&
14
0)
0<
#435000
1!
12
13
1)
0=
01
0(
#440000
0$
05
0)
#450000
0!
02
03
1)
#465000
1!
12
13
0)
#480000
0!
02
03
1)
#495000
1!
12
13
0)
#510000
0!
02
03
1)
#525000
1!
12
13
0)
#540000
0!
02
03
1)
#555000
1!
12
13
0)
#570000
0!
02
03
1)
#580000
0&
04
0)
08
#585000
1!
12
13
1)
0;
00
0'
#600000
0!
02
03
0)
#615000
1!
12
13
1)
#630000
0!
02
03
0)
#645000
1!
12
13
1)
#660000
0!
02
03
0)
#675000
1!
12
13
1)
#690000
0!
02
03
0)
#705000
1!
12
13
1)
#720000
0!
02
03
0)
#735000
1!
12
13
1)
#750000
0!
02
03
0)
#765000
1!
12
13
1)
#780000
0!
02
03
0)
#795000
1!
12
13
1)
#810000
0!
02
03
0)
#825000
1!
12
13
1)
#840000
0!
02
03
0)
#855000
1!
12
13
1)
#870000
0!
02
03
0)
#885000
1!
12
13
1)
#900000
0!
02
03
0)
#915000
1!
12
13
1)
#930000
0!
02
03
0)
#945000
1!
12
13
1)
#960000
0!
02
03
0)
#975000
1!
12
13
1)
#990000
0!
02
03
0)
